int main(){
	int a;
	scanf("%d",&a);
	if(a<2000){
		printf("不打折:%d元",a);
	}
	if(a>=2000&&a<3000){
		printf("九五折:%f元",a*0.95);
	}
	if(a>=3000&&a<4000){
		printf("九折:%f元",a*0.9);
	}
	if(a>=4000&&a<5000){
		printf("八五折:%f元",a*0.85);
	}
	if(a>=5000){
		printf("八折:%f元",a*0.8);
	}
	else{
	printf("error");
	}
	return 0;

}