int main(){
	int i,man,weman,child;
	for(man=0;man<=16;man++){
		for(weman=0;weman<=25;weman++){
			child=30-man-weman;
			if(man*3+weman*2+child==50)
				printf("man:%d   weman:%d   child:%d  \n",man,weman,child);
	}}

	return 0;

}